%YAML 1.1
%TAG !u! tag:unity3d.com,2011:
--- !u!114 &11400000
MonoBehaviour:
  m_ObjectHideFlags: 0
  m_CorrespondingSourceObject: {fileID: 0}
  m_PrefabInstance: {fileID: 0}
  m_PrefabAsset: {fileID: 0}
  m_GameObject: {fileID: 0}
  m_Enabled: 1
  m_EditorHideFlags: 0
  m_Script: {fileID: 11500000, guid: 2b5dd7cc2d0988d7294cdb76332a52c0, type: 3}
  m_Name: Glass_Bottle_Break
  m_EditorClassIdentifier: 
  clips:
  - {fileID: 8300000, guid: b67764eff250a732f894ac21cb36c61d, type: 3}
  - {fileID: 8300000, guid: 5dbac5c1c068cffed8c2a3fa59bc9fd1, type: 3}
