%YAML 1.1
%TAG !u! tag:unity3d.com,2011:
--- !u!1001 &8446755168321530930
PrefabInstance:
  m_ObjectHideFlags: 0
  serializedVersion: 2
  m_Modification:
    serializedVersion: 3
    m_TransformParent: {fileID: 0}
    m_Modifications:
    - target: {fileID: -8679921383154817045, guid: d75da1f5574813dd3b41e8dab5114681, type: 3}
      propertyPath: m_RootOrder
      value: 11
      objectReference: {fileID: 0}
    - target: {fileID: -8679921383154817045, guid: d75da1f5574813dd3b41e8dab5114681, type: 3}
      propertyPath: m_LocalPosition.x
      value: 17.58
      objectReference: {fileID: 0}
    - target: {fileID: -8679921383154817045, guid: d75da1f5574813dd3b41e8dab5114681, type: 3}
      propertyPath: m_LocalPosition.y
      value: -2.8125
      objectReference: {fileID: 0}
    - target: {fileID: -8679921383154817045, guid: d75da1f5574813dd3b41e8dab5114681, type: 3}
      propertyPath: m_LocalPosition.z
      value: 26.799
      objectReference: {fileID: 0}
    - target: {fileID: -8679921383154817045, guid: d75da1f5574813dd3b41e8dab5114681, type: 3}
      propertyPath: m_LocalRotation.w
      value: 0.045392573
      objectReference: {fileID: 0}
    - target: {fileID: -8679921383154817045, guid: d75da1f5574813dd3b41e8dab5114681, type: 3}
      propertyPath: m_LocalRotation.x
      value: -0.4282672
      objectReference: {fileID: 0}
    - target: {fileID: -8679921383154817045, guid: d75da1f5574813dd3b41e8dab5114681, type: 3}
      propertyPath: m_LocalRotation.y
      value: -0.7199563
      objectReference: {fileID: 0}
    - target: {fileID: -8679921383154817045, guid: d75da1f5574813dd3b41e8dab5114681, type: 3}
      propertyPath: m_LocalRotation.z
      value: -0.5442331
      objectReference: {fileID: 0}
    - target: {fileID: -8679921383154817045, guid: d75da1f5574813dd3b41e8dab5114681, type: 3}
      propertyPath: m_LocalEulerAnglesHint.x
      value: -55.339
      objectReference: {fileID: 0}
    - target: {fileID: -8679921383154817045, guid: d75da1f5574813dd3b41e8dab5114681, type: 3}
      propertyPath: m_LocalEulerAnglesHint.y
      value: -224.807
      objectReference: {fileID: 0}
    - target: {fileID: -8679921383154817045, guid: d75da1f5574813dd3b41e8dab5114681, type: 3}
      propertyPath: m_LocalEulerAnglesHint.z
      value: 85.887
      objectReference: {fileID: 0}
    - target: {fileID: 919132149155446097, guid: d75da1f5574813dd3b41e8dab5114681, type: 3}
      propertyPath: m_Name
      value: Sleeping_Bag
      objectReference: {fileID: 0}
    - target: {fileID: 919132149155446097, guid: d75da1f5574813dd3b41e8dab5114681, type: 3}
      propertyPath: m_Layer
      value: 7
      objectReference: {fileID: 0}
    m_RemovedComponents: []
    m_RemovedGameObjects: []
    m_AddedGameObjects: []
    m_AddedComponents:
    - targetCorrespondingSourceObject: {fileID: 919132149155446097, guid: d75da1f5574813dd3b41e8dab5114681, type: 3}
      insertIndex: -1
      addedObject: {fileID: 1549310847522773022}
    - targetCorrespondingSourceObject: {fileID: 919132149155446097, guid: d75da1f5574813dd3b41e8dab5114681, type: 3}
      insertIndex: -1
      addedObject: {fileID: 6874135942270776517}
    - targetCorrespondingSourceObject: {fileID: 919132149155446097, guid: d75da1f5574813dd3b41e8dab5114681, type: 3}
      insertIndex: -1
      addedObject: {fileID: 2179410065876664}
  m_SourcePrefab: {fileID: 100100000, guid: d75da1f5574813dd3b41e8dab5114681, type: 3}
--- !u!1 &8789213117108375907 stripped
GameObject:
  m_CorrespondingSourceObject: {fileID: 919132149155446097, guid: d75da1f5574813dd3b41e8dab5114681, type: 3}
  m_PrefabInstance: {fileID: 8446755168321530930}
  m_PrefabAsset: {fileID: 0}
--- !u!64 &1549310847522773022
MeshCollider:
  m_ObjectHideFlags: 0
  m_CorrespondingSourceObject: {fileID: 0}
  m_PrefabInstance: {fileID: 0}
  m_PrefabAsset: {fileID: 0}
  m_GameObject: {fileID: 8789213117108375907}
  m_Material: {fileID: 0}
  m_IncludeLayers:
    serializedVersion: 2
    m_Bits: 0
  m_ExcludeLayers:
    serializedVersion: 2
    m_Bits: 0
  m_LayerOverridePriority: 0
  m_IsTrigger: 0
  m_ProvidesContacts: 0
  m_Enabled: 1
  serializedVersion: 5
  m_Convex: 1
  m_CookingOptions: 30
  m_Mesh: {fileID: -1799370671242732104, guid: d75da1f5574813dd3b41e8dab5114681, type: 3}
--- !u!54 &6874135942270776517
Rigidbody:
  m_ObjectHideFlags: 0
  m_CorrespondingSourceObject: {fileID: 0}
  m_PrefabInstance: {fileID: 0}
  m_PrefabAsset: {fileID: 0}
  m_GameObject: {fileID: 8789213117108375907}
  serializedVersion: 4
  m_Mass: 1
  m_Drag: 0
  m_AngularDrag: 0.05
  m_CenterOfMass: {x: 0, y: 0, z: 0}
  m_InertiaTensor: {x: 1, y: 1, z: 1}
  m_InertiaRotation: {x: 0, y: 0, z: 0, w: 1}
  m_IncludeLayers:
    serializedVersion: 2
    m_Bits: 0
  m_ExcludeLayers:
    serializedVersion: 2
    m_Bits: 0
  m_ImplicitCom: 1
  m_ImplicitTensor: 1
  m_UseGravity: 1
  m_IsKinematic: 0
  m_Interpolate: 0
  m_Constraints: 0
  m_CollisionDetection: 0
--- !u!114 &2179410065876664
MonoBehaviour:
  m_ObjectHideFlags: 0
  m_CorrespondingSourceObject: {fileID: 0}
  m_PrefabInstance: {fileID: 0}
  m_PrefabAsset: {fileID: 0}
  m_GameObject: {fileID: 8789213117108375907}
  m_Enabled: 1
  m_EditorHideFlags: 0
  m_Script: {fileID: 11500000, guid: 0c73b9e8718a4e4bab579bbea71e1bad, type: 3}
  m_Name: 
  m_EditorClassIdentifier: 
  data: {fileID: 11400000, guid: 4d72ed2555b98d82f8aa1fe066fe0f34, type: 2}
  allowAdoption: 1
  allowGrab: 1
  allowStash: 1
  torqueScale: 1
  weight: 29.790913
