%YAML 1.1
%TAG !u! tag:unity3d.com,2011:
--- !u!114 &11400000
MonoBehaviour:
  m_ObjectHideFlags: 0
  m_CorrespondingSourceObject: {fileID: 0}
  m_PrefabInstance: {fileID: 0}
  m_PrefabAsset: {fileID: 0}
  m_GameObject: {fileID: 0}
  m_Enabled: 1
  m_EditorHideFlags: 0
  m_Script: {fileID: 11500000, guid: 2b5dd7cc2d0988d7294cdb76332a52c0, type: 3}
  m_Name: Footsteps_ShallowWater
  m_EditorClassIdentifier: 
  clips:
  - {fileID: 8300000, guid: 180e3e3c89d13a08cb2b86f92b8d8f44, type: 3}
  - {fileID: 8300000, guid: 44fd3c8991e541005b1f33ad94f9c885, type: 3}
  - {fileID: 8300000, guid: 3e2533edaab357c7881dc89372776c50, type: 3}
  - {fileID: 8300000, guid: 639962143d25b549181d40bc948fd4df, type: 3}
