%YAML 1.1
%TAG !u! tag:unity3d.com,2011:
--- !u!114 &11400000
MonoBehaviour:
  m_ObjectHideFlags: 0
  m_CorrespondingSourceObject: {fileID: 0}
  m_PrefabInstance: {fileID: 0}
  m_PrefabAsset: {fileID: 0}
  m_GameObject: {fileID: 0}
  m_Enabled: 1
  m_EditorHideFlags: 0
  m_Script: {fileID: 11500000, guid: 2b5dd7cc2d0988d7294cdb76332a52c0, type: 3}
  m_Name: Footsteps_Chainlink
  m_EditorClassIdentifier: 
  clips:
  - {fileID: 8300000, guid: a5ddaf91ea5269c41a95068966a0a674, type: 3}
  - {fileID: 8300000, guid: cdf15b88130e3f57fb214cfebdc0ae8f, type: 3}
  - {fileID: 8300000, guid: 5e7a188dca629923aad910df5cad5255, type: 3}
  - {fileID: 8300000, guid: b01ee4088eb191b7ca3320a8b532a81f, type: 3}
