%YAML 1.1
%TAG !u! tag:unity3d.com,2011:
--- !u!114 &11400000
MonoBehaviour:
  m_ObjectHideFlags: 0
  m_CorrespondingSourceObject: {fileID: 0}
  m_PrefabInstance: {fileID: 0}
  m_PrefabAsset: {fileID: 0}
  m_GameObject: {fileID: 0}
  m_Enabled: 1
  m_EditorHideFlags: 0
  m_Script: {fileID: 11500000, guid: 4cee4d714c3787c1f8875320c0afe7f5, type: 3}
  m_Name: Generic
  m_EditorClassIdentifier: 
  soft:
  - {fileID: 8300000, guid: b25d2e86d61ded5e3816e78607a8ecbe, type: 3}
  - {fileID: 8300000, guid: fa15bf594cfadb689a4b45d193026528, type: 3}
  - {fileID: 8300000, guid: 5ff6f6dc31a37c6ae912c8e1edd98ed2, type: 3}
  hard:
  - {fileID: 8300000, guid: 0011b48b3fad675bea3e7b8a13b0b306, type: 3}
  - {fileID: 8300000, guid: 725d81085962ab38f9f07049decfddc2, type: 3}
  - {fileID: 8300000, guid: cb5aa2a62e8a6f834912324992d9ad75, type: 3}
  drag:
  - {fileID: 8300000, guid: 15f4e4b9989e6c40e9abb3b7aced4521, type: 3}
